%YAML 1.1
%TAG !u! tag:unity3d.com,2011:
--- !u!114 &11400000
MonoBehaviour:
  m_ObjectHideFlags: 0
  m_CorrespondingSourceObject: {fileID: 0}
  m_PrefabInstance: {fileID: 0}
  m_PrefabAsset: {fileID: 0}
  m_GameObject: {fileID: 0}
  m_Enabled: 1
  m_EditorHideFlags: 0
  m_Script: {fileID: 11500000, guid: 92c125839702fc9d68ff25d94258e7c6, type: 3}
  m_Name: Huge Melee Minion
  m_EditorClassIdentifier: 
  Sprite: {fileID: 21300000, guid: 5ac7390cce8fad14da70586dd6891152, type: 3}
  Size: 3
  MaxSpeed: 1
  MaxHP: 75
  MaxDMG: 4
  MaxAttackSpeed: 1.75
  Drop: {fileID: 1270116435905535439, guid: 0356fc1a9aead614897116c72e52084b, type: 3}
  Points: 25
  deathSound: {fileID: 8300000, guid: fd45d170bb1b77d4fbf6276e176f9909, type: 3}
