%YAML 1.1
%TAG !u! tag:unity3d.com,2011:
--- !u!114 &11400000
MonoBehaviour:
  m_ObjectHideFlags: 0
  m_CorrespondingSourceObject: {fileID: 0}
  m_PrefabInstance: {fileID: 0}
  m_PrefabAsset: {fileID: 0}
  m_GameObject: {fileID: 0}
  m_Enabled: 1
  m_EditorHideFlags: 0
  m_Script: {fileID: 11500000, guid: 2d95e62e6fd5cad56a45a3c5ded3fcdd, type: 3}
  m_Name: Upgrade8
  m_EditorClassIdentifier: 
  EffectText: +5 Nexus HP
  UpgradeSprite: {fileID: 21300000, guid: 5c9c22caf0f14d0ac8d001ab32145c55, type: 3}
